PWM_generator.sim/sim_1/behav/xsim/simulate.log
Time resolution is 1 ps
Time=0 | enable=0, counter=    0, pwm_high=0, pwm_low=0
Time=30000 | enable=1, counter=    0, pwm_high=0, pwm_low=0
Time=35000 | enable=1, counter=    1, pwm_high=1, pwm_low=0
Time=45000 | enable=1, counter=    2, pwm_high=1, pwm_low=0
Time=55000 | enable=1, counter=    3, pwm_high=1, pwm_low=0
Time=65000 | enable=1, counter=    4, pwm_high=1, pwm_low=0
Time=75000 | enable=1, counter=    5, pwm_high=1, pwm_low=0
Time=85000 | enable=1, counter=    6, pwm_high=1, pwm_low=0
Time=95000 | enable=1, counter=    7, pwm_high=1, pwm_low=0
Time=105000 | enable=1, counter=    8, pwm_high=1, pwm_low=0
Time=115000 | enable=1, counter=    9, pwm_high=1, pwm_low=0
Time=125000 | enable=1, counter=   10, pwm_high=1, pwm_low=0
Time=135000 | enable=1, counter=   11, pwm_high=1, pwm_low=0
Time=145000 | enable=1, counter=   12, pwm_high=1, pwm_low=0
Time=155000 | enable=1, counter=   13, pwm_high=1, pwm_low=0
Time=165000 | enable=1, counter=   14, pwm_high=1, pwm_low=0
Time=175000 | enable=1, counter=   15, pwm_high=1, pwm_low=0
Time=185000 | enable=1, counter=   16, pwm_high=1, pwm_low=0
Time=195000 | enable=1, counter=   17, pwm_high=1, pwm_low=0
Time=205000 | enable=1, counter=   18, pwm_high=1, pwm_low=0
Time=215000 | enable=1, counter=   19, pwm_high=1, pwm_low=0
Time=225000 | enable=1, counter=   20, pwm_high=1, pwm_low=0
Time=235000 | enable=1, counter=   21, pwm_high=1, pwm_low=0
Time=245000 | enable=1, counter=   22, pwm_high=1, pwm_low=0
Time=255000 | enable=1, counter=   23, pwm_high=1, pwm_low=0
Time=265000 | enable=1, counter=   24, pwm_high=1, pwm_low=0
Time=275000 | enable=1, counter=   25, pwm_high=1, pwm_low=0
Time=285000 | enable=1, counter=   26, pwm_high=1, pwm_low=0
Time=295000 | enable=1, counter=   27, pwm_high=1, pwm_low=0
Time=305000 | enable=1, counter=   28, pwm_high=1, pwm_low=0
Time=315000 | enable=1, counter=   29, pwm_high=1, pwm_low=0
Time=325000 | enable=1, counter=   30, pwm_high=1, pwm_low=0
Time=335000 | enable=1, counter=   31, pwm_high=1, pwm_low=0
Time=345000 | enable=1, counter=   32, pwm_high=1, pwm_low=0
Time=355000 | enable=1, counter=   33, pwm_high=1, pwm_low=0
Time=365000 | enable=1, counter=   34, pwm_high=1, pwm_low=0
Time=375000 | enable=1, counter=   35, pwm_high=1, pwm_low=0
Time=385000 | enable=1, counter=   36, pwm_high=1, pwm_low=0
Time=395000 | enable=1, counter=   37, pwm_high=1, pwm_low=0
Time=405000 | enable=1, counter=   38, pwm_high=1, pwm_low=0
Time=415000 | enable=1, counter=   39, pwm_high=1, pwm_low=0
Time=425000 | enable=1, counter=   40, pwm_high=1, pwm_low=0
Time=435000 | enable=1, counter=   41, pwm_high=1, pwm_low=0
Time=445000 | enable=1, counter=   42, pwm_high=1, pwm_low=0
Time=455000 | enable=1, counter=   43, pwm_high=1, pwm_low=0
Time=465000 | enable=1, counter=   44, pwm_high=1, pwm_low=0
Time=475000 | enable=1, counter=   45, pwm_high=1, pwm_low=0
Time=485000 | enable=1, counter=   46, pwm_high=1, pwm_low=0
Time=495000 | enable=1, counter=   47, pwm_high=1, pwm_low=0
Time=505000 | enable=1, counter=   48, pwm_high=1, pwm_low=0
Time=515000 | enable=1, counter=   49, pwm_high=1, pwm_low=0
Time=525000 | enable=1, counter=   50, pwm_high=1, pwm_low=0
Time=535000 | enable=1, counter=   51, pwm_high=1, pwm_low=0
Time=545000 | enable=1, counter=   52, pwm_high=1, pwm_low=0
Time=555000 | enable=1, counter=   53, pwm_high=1, pwm_low=0
Time=565000 | enable=1, counter=   54, pwm_high=1, pwm_low=0
Time=575000 | enable=1, counter=   55, pwm_high=1, pwm_low=0
Time=585000 | enable=1, counter=   56, pwm_high=1, pwm_low=0
Time=595000 | enable=1, counter=   57, pwm_high=1, pwm_low=0
Time=605000 | enable=1, counter=   58, pwm_high=1, pwm_low=0
Time=615000 | enable=1, counter=   59, pwm_high=1, pwm_low=0
Time=625000 | enable=1, counter=   60, pwm_high=1, pwm_low=0
Time=635000 | enable=1, counter=   61, pwm_high=1, pwm_low=0
Time=645000 | enable=1, counter=   62, pwm_high=1, pwm_low=0
Time=655000 | enable=1, counter=   63, pwm_high=1, pwm_low=0
Time=665000 | enable=1, counter=   64, pwm_high=1, pwm_low=0
Time=675000 | enable=1, counter=   65, pwm_high=1, pwm_low=